…
      # Add a new column to record the run number
      stats$Run <- i
      
      # Bind the results to the data frame
      stat.test_df <- rbind(stat.test_df, stats)
    }

    # Print the data frame
    print(stat.test_df)

    ## # A tibble: 30 × 11
    ##    .y.        group1 group2    n1    n2 statistic    df     p p.adj p.adj.signif
    ##    <chr>      <chr>  <chr>  <int> <int>     <dbl> <dbl> <dbl> <dbl> <chr>       
    ##  1 Bryobacte… Contr… Plunge     4     5    -0.670  6.01 0.528 1     ns          
    ##  2 Bryobacte… Contr… Rate       4     5     0.746  4.46 0.493 1     ns          
    ##  3 Bryobacte… Plunge Rate       5     5     1.84   6.86 0.11  0.33  ns          
    ##  4 Solibacte… Contr… Plunge     4     5    -0.758  6.95 0.473 1     ns          
    ##  5 Solibacte… Contr… Rate       4     5     0.928  4.48 0.401 1     ns          
    ##  6 Solibacte… Plunge Rate       5     5     1.67   5.23 0.154 0.462 ns          
    ##  7 Chitinoph… Contr… Plunge     4     5     0.491  4.90 0.644 1     ns          
    ##  8 Chitinoph… Contr… Rate       4     5     1.37   4.70 0.232 0.696 ns          
    ##  9 Chitinoph… Plunge Rate       5     5     1.26   7.97 0.244 0.732 ns          
    ## 10 Ktedonoba… Contr… Plunge     4     5    -0.105  6.53 0.92  1     ns          
    ## # ℹ 20 more rows
    ## # ℹ 1 more variable: Run <int>
…
      # Add a new column to record the run number
      stats$Run <- i
      
      # Bind the results to the data frame
      stat.test_df <- rbind(stat.test_df, stats)
    }

    # Print the data frame
    print(stat.test_df)

    ## # A tibble: 30 × 11
    ##    .y.        group1 group2    n1    n2 statistic    df     p p.adj p.adj.signif
    ##    <chr>      <chr>  <chr>  <int> <int>     <dbl> <dbl> <dbl> <dbl> <chr>       
    ##  1 Nocardiac… Contr… Plunge     5     5    -0.871  7.42 0.411 1     ns          
    ##  2 Nocardiac… Contr… Rate       5     5     0.298  7.12 0.774 1     ns          
    ##  3 Nocardiac… Plunge Rate       5     5     1.21   6.02 0.272 0.816 ns          
    ##  4 Weeksella… Contr… Plunge     5     5     1.70   6.09 0.139 0.417 ns          
    ##  5 Weeksella… Contr… Rate       5     5     0.699  7.86 0.505 1     ns          
    ##  6 Weeksella… Plunge Rate       5     5    -0.977  6.60 0.363 1     ns          
    ##  7 Bacillace… Contr… Plunge     5     5    -2.21   6.56 0.066 0.198 ns          
    ##  8 Bacillace… Contr… Rate       5     5     1.55   7.06 0.164 0.492 ns          
    ##  9 Bacillace… Plunge Rate       5     5     3.36   5.31 0.018 0.054 ns          
    ## 10 Planococc… Contr… Plunge     5     5     0.265  7.65 0.798 1     ns          
    ## # ℹ 20 more rows
    ## # ℹ 1 more variable: Run <int>
…
