…
      # Add a new column to record the run number
      stats$Run <- i
      
      # Bind the results to the data frame
      stat.test_df <- rbind(stat.test_df, stats)
    }

    # Print the data frame
    print(stat.test_df)

    ## # A tibble: 30 × 11
    ##    .y.        group1 group2    n1    n2 statistic    df     p p.adj p.adj.signif
    ##    <chr>      <chr>  <chr>  <int> <int>     <dbl> <dbl> <dbl> <dbl> <chr>       
    ##  1 Didymella… Contr… Plunge     5     5     1.19   7.44 0.27  0.81  ns          
    ##  2 Didymella… Contr… Rate       5     5    -0.392  5.43 0.71  1     ns          
    ##  3 Didymella… Plunge Rate       5     5    -2.21   6.34 0.067 0.201 ns          
    ##  4 Herpotric… Contr… Plunge     5     5     0.662  6.66 0.53  1     ns          
    ##  5 Herpotric… Contr… Rate       5     5     0.795  4.59 0.466 1     ns          
    ##  6 Herpotric… Plunge Rate       5     5     0.438  5.51 0.678 1     ns          
    ##  7 Helotiace… Contr… Plunge     5     5     0.372  7.92 0.72  1     ns          
    ##  8 Helotiace… Contr… Rate       5     5     0.530  7.58 0.611 1     ns          
    ##  9 Helotiace… Plunge Rate       5     5     0.180  7.85 0.862 1     ns          
    ## 10 Plectosph… Contr… Plunge     5     5    -0.798  5.99 0.455 1     ns          
    ## # ℹ 20 more rows
    ## # ℹ 1 more variable: Run <int>
…
